Portugal Tourism Forecast
…
Convert to a time indexed table

pt_tour_ts <- pt_tourism_dataset  %>%
  mutate(month = yearmonth(month)) %>% 
  as_tsibble(index = month)
print(pt_tour_ts)

## # A tsibble: 204 x 2 [1M]
##       month tourist
##       <mth>   <dbl>
##  1 2008 Jan  280769
##  2 2008 Feb  368044
##  3 2008 Mar  548608
##  4 2008 Apr  592216
##  5 2008 May  741789
##  6 2008 Jun  665289
##  7 2008 Jul  805355
##  8 2008 Aug  959778
##  9 2008 Sep  782664
## 10 2008 Oct  612167
## #  194 more rows
…
